---
http_interactions:
- request:
    method: post
    uri: https://api.petfinder.com/v2/oauth2/token
    body:
      encoding: UTF-8
      string: client_id=<CLIENT_ID>&client_secret=<CLIENT_SECRET>&grant_type=client_credentials
    headers:
      User-Agent:
      - Faraday v0.15.4
      Content-Type:
      - application/x-www-form-urlencoded
      Accept-Encoding:
      - gzip;q=1.0,deflate;q=0.6,identity;q=0.3
      Accept:
      - "*/*"
  response:
    status:
      code: 200
      message: OK
    headers:
      Content-Type:
      - application/json; charset=UTF-8
      Content-Length:
      - '609'
      Connection:
      - keep-alive
      Date:
      - Thu, 09 May 2019 02:45:43 GMT
      X-Amzn-Requestid:
      - 8a364a1e-7204-11e9-978d-694b1a10b3dc
      Strict-Transport-Security:
      - max-age=31536000; includeSubDomains
      X-Amzn-Remapped-Content-Length:
      - '609'
      X-Amzn-Remapped-Connection:
      - keep-alive
      X-Amz-Apigw-Id:
      - ZZQdrGSDIAMFZ4g=
      Vary:
      - Accept-Encoding
      Cache-Control:
      - no-store, private
      Pragma:
      - no-cache
      X-Amzn-Remapped-Date:
      - Thu, 09 May 2019 02:45:43 GMT
      X-Cache:
      - Miss from cloudfront
      Via:
      - 1.1 694abfb680719ae0a26dcfe5933d5f49.cloudfront.net (CloudFront)
      X-Amz-Cf-Id:
      - eh5oXySMYCABGYB-pANWJIacFXnnSXFqxF5Ng-77tvUPi1jwjjWP8A==
    body:
      encoding: ASCII-8BIT
      string: '{"token_type":"Bearer","expires_in":3600,"access_token":"eyJ0eXAiOiJKV1QiLCJhbGciOiJSUzI1NiIsImp0aSI6IjE1MjkzMmJlODU2ZjAwY2Q0MmVmMDAwYjk4NzFhYWJhMWQ0NzJkODUwZDY4ZmU0YTZhZGI5ZjI1ODBkMGNhODhhOTk0NGM1N2U1MjZkNTY4In0.eyJhdWQiOiJyd01JZ3pnWUwyNnAwVFRZZGdkSTJ3OTdBdnNaNHVXNlhGc1MzWUlqS1VGU0gzcHJDMyIsImp0aSI6IjE1MjkzMmJlODU2ZjAwY2Q0MmVmMDAwYjk4NzFhYWJhMWQ0NzJkODUwZDY4ZmU0YTZhZGI5ZjI1ODBkMGNhODhhOTk0NGM1N2U1MjZkNTY4IiwiaWF0IjoxNTU3MzY5OTQzLCJuYmYiOjE1NTczNjk5NDMsImV4cCI6MTU1NzM3MzU0Mywic3ViIjoiIiwic2NvcGVzIjpbXX0.fUod2NOEoq48ZkPSt8dz0HhpqhLp9_9XhUBJsm7ic9qY1OXzkC22_bTaOXpY2Avs2Y6604cuUkKQu9HnFeLdtDBlHvmpnX2m-b5jkLBx4SvVRZPSeMYRBfwRV4_-Us8GK7Qh3llyXfBsSLUhWzFlXCFdXxqEJBwEjMs_IuSkzWMtZyGrKYOPEsEQECtOYGcgEVRGSw82i-XYyntbqYzvhFyL75FAA5awP0fD-a6MkhAFqjXhX9ZOLoMgVeq1ZhETWtts7Wu12ol_gDUOEBGJWH66VaqeE7O3PjtOL2s7My8kMxsbuGTJoaCYZHtW8Wx5hkodDpRZfglrZ_atxi9hzw"}'
    http_version: 
  recorded_at: Thu, 09 May 2019 02:45:43 GMT
- request:
    method: get
    uri: https://api.petfinder.com/v2/animals?limit=5
    body:
      encoding: US-ASCII
      string: ''
    headers:
      User-Agent:
      - Faraday v0.15.4
      Content-Type:
      - application/json
      Authorization:
      - Bearer eyJ0eXAiOiJKV1QiLCJhbGciOiJSUzI1NiIsImp0aSI6IjE1MjkzMmJlODU2ZjAwY2Q0MmVmMDAwYjk4NzFhYWJhMWQ0NzJkODUwZDY4ZmU0YTZhZGI5ZjI1ODBkMGNhODhhOTk0NGM1N2U1MjZkNTY4In0.eyJhdWQiOiJyd01JZ3pnWUwyNnAwVFRZZGdkSTJ3OTdBdnNaNHVXNlhGc1MzWUlqS1VGU0gzcHJDMyIsImp0aSI6IjE1MjkzMmJlODU2ZjAwY2Q0MmVmMDAwYjk4NzFhYWJhMWQ0NzJkODUwZDY4ZmU0YTZhZGI5ZjI1ODBkMGNhODhhOTk0NGM1N2U1MjZkNTY4IiwiaWF0IjoxNTU3MzY5OTQzLCJuYmYiOjE1NTczNjk5NDMsImV4cCI6MTU1NzM3MzU0Mywic3ViIjoiIiwic2NvcGVzIjpbXX0.fUod2NOEoq48ZkPSt8dz0HhpqhLp9_9XhUBJsm7ic9qY1OXzkC22_bTaOXpY2Avs2Y6604cuUkKQu9HnFeLdtDBlHvmpnX2m-b5jkLBx4SvVRZPSeMYRBfwRV4_-Us8GK7Qh3llyXfBsSLUhWzFlXCFdXxqEJBwEjMs_IuSkzWMtZyGrKYOPEsEQECtOYGcgEVRGSw82i-XYyntbqYzvhFyL75FAA5awP0fD-a6MkhAFqjXhX9ZOLoMgVeq1ZhETWtts7Wu12ol_gDUOEBGJWH66VaqeE7O3PjtOL2s7My8kMxsbuGTJoaCYZHtW8Wx5hkodDpRZfglrZ_atxi9hzw
      Accept-Encoding:
      - gzip;q=1.0,deflate;q=0.6,identity;q=0.3
      Accept:
      - "*/*"
  response:
    status:
      code: 200
      message: OK
    headers:
      Content-Type:
      - application/json
      Content-Length:
      - '2340'
      Connection:
      - keep-alive
      Date:
      - Thu, 09 May 2019 02:45:44 GMT
      X-Amzn-Requestid:
      - 8a7723d3-7204-11e9-a6ff-5b5dd83625f1
      Strict-Transport-Security:
      - max-age=31536000; includeSubDomains
      X-Amzn-Remapped-Content-Length:
      - '2340'
      X-Amzn-Remapped-Connection:
      - keep-alive
      X-Amz-Apigw-Id:
      - ZZQdwEEZoAMFwEA=
      Cache-Control:
      - no-cache, private
      X-Amzn-Remapped-Date:
      - Thu, 09 May 2019 02:45:44 GMT
      Vary:
      - Accept-Encoding
      X-Cache:
      - Miss from cloudfront
      Via:
      - 1.1 f0197fce4c4951261b327d99dba71c1d.cloudfront.net (CloudFront)
      X-Amz-Cf-Id:
      - xzJEe5MZLKXjWkFRUKkANPkC3MUit-EcCc9BnOEsD4tKM1v0d5ZQOg==
    body:
      encoding: ASCII-8BIT
      string: '{"animals":[{"id":44649257,"organization_id":"FL1225","url":"https:\/\/www.petfinder.com\/dog\/beshte-44649257\/ny\/montgomery\/barking-back-fl1225\/?referrer_id=97f97876-7585-4c77-b7df-5f9c2874e1ca","type":"Dog","species":"Dog","breeds":{"primary":"Catahoula
        Leopard Dog","secondary":null,"mixed":false,"unknown":false},"colors":{"primary":"Merle
        (Red)","secondary":null,"tertiary":null},"age":"Young","gender":"Male","size":"Medium","coat":"Short","attributes":{"spayed_neutered":true,"house_trained":true,"declawed":null,"special_needs":false,"shots_current":true},"environment":{"children":true,"dogs":true,"cats":null},"tags":[],"name":"Beshte","description":"Beshte
        is one of six 6-8 month old puppies (all named after Lion Guard characters
        because that\u0026#039;s what happens when...","photos":[{"small":"https:\/\/dl5zpyw5k3jeb.cloudfront.net\/photos\/pets\/44649257\/1\/?bust=1557369802\u0026width=100","medium":"https:\/\/dl5zpyw5k3jeb.cloudfront.net\/photos\/pets\/44649257\/1\/?bust=1557369802\u0026width=300","large":"https:\/\/dl5zpyw5k3jeb.cloudfront.net\/photos\/pets\/44649257\/1\/?bust=1557369802\u0026width=600","full":"https:\/\/dl5zpyw5k3jeb.cloudfront.net\/photos\/pets\/44649257\/1\/?bust=1557369802"},{"small":"https:\/\/dl5zpyw5k3jeb.cloudfront.net\/photos\/pets\/44649257\/2\/?bust=1557369806\u0026width=100","medium":"https:\/\/dl5zpyw5k3jeb.cloudfront.net\/photos\/pets\/44649257\/2\/?bust=1557369806\u0026width=300","large":"https:\/\/dl5zpyw5k3jeb.cloudfront.net\/photos\/pets\/44649257\/2\/?bust=1557369806\u0026width=600","full":"https:\/\/dl5zpyw5k3jeb.cloudfront.net\/photos\/pets\/44649257\/2\/?bust=1557369806"},{"small":"https:\/\/dl5zpyw5k3jeb.cloudfront.net\/photos\/pets\/44649257\/3\/?bust=1557369808\u0026width=100","medium":"https:\/\/dl5zpyw5k3jeb.cloudfront.net\/photos\/pets\/44649257\/3\/?bust=1557369808\u0026width=300","large":"https:\/\/dl5zpyw5k3jeb.cloudfront.net\/photos\/pets\/44649257\/3\/?bust=1557369808\u0026width=600","full":"https:\/\/dl5zpyw5k3jeb.cloudfront.net\/photos\/pets\/44649257\/3\/?bust=1557369808"},{"small":"https:\/\/dl5zpyw5k3jeb.cloudfront.net\/photos\/pets\/44649257\/4\/?bust=1557369809\u0026width=100","medium":"https:\/\/dl5zpyw5k3jeb.cloudfront.net\/photos\/pets\/44649257\/4\/?bust=1557369809\u0026width=300","large":"https:\/\/dl5zpyw5k3jeb.cloudfront.net\/photos\/pets\/44649257\/4\/?bust=1557369809\u0026width=600","full":"https:\/\/dl5zpyw5k3jeb.cloudfront.net\/photos\/pets\/44649257\/4\/?bust=1557369809"},{"small":"https:\/\/dl5zpyw5k3jeb.cloudfront.net\/photos\/pets\/44649257\/5\/?bust=1557369812\u0026width=100","medium":"https:\/\/dl5zpyw5k3jeb.cloudfront.net\/photos\/pets\/44649257\/5\/?bust=1557369812\u0026width=300","large":"https:\/\/dl5zpyw5k3jeb.cloudfront.net\/photos\/pets\/44649257\/5\/?bust=1557369812\u0026width=600","full":"https:\/\/dl5zpyw5k3jeb.cloudfront.net\/photos\/pets\/44649257\/5\/?bust=1557369812"},{"small":"https:\/\/dl5zpyw5k3jeb.cloudfront.net\/photos\/pets\/44649257\/6\/?bust=1557369814\u0026width=100","medium":"https:\/\/dl5zpyw5k3jeb.cloudfront.net\/photos\/pets\/44649257\/6\/?bust=1557369814\u0026width=300","large":"https:\/\/dl5zpyw5k3jeb.cloudfront.net\/photos\/pets\/44649257\/6\/?bust=1557369814\u0026width=600","full":"https:\/\/dl5zpyw5k3jeb.cloudfront.net\/photos\/pets\/44649257\/6\/?bust=1557369814"}],"status":"adoptable","published_at":"2019-05-09T02:45:25+0000","contact":{"email":"Barkingbackrescue@gmail.com","phone":null,"address":{"address1":null,"address2":null,"city":"Montgomery","state":"NY","postcode":"12549","country":"US"}},"_links":{"self":{"href":"\/v2\/animals\/44649257"},"type":{"href":"\/v2\/types\/dog"},"organization":{"href":"\/v2\/organizations\/fl1225"}}},{"id":44649294,"organization_id":"TX364","url":"https:\/\/www.petfinder.com\/dog\/lenny-44649294\/tx\/bandera\/cowboy-capital-pet-assistance-league-inc-tx364\/?referrer_id=97f97876-7585-4c77-b7df-5f9c2874e1ca","type":"Dog","species":"Dog","breeds":{"primary":"Boxer","secondary":"Labrador
        Retriever","mixed":true,"unknown":false},"colors":{"primary":"Black","secondary":"Brown
        \/ Chocolate","tertiary":null},"age":"Baby","gender":"Male","size":"Medium","coat":"Short","attributes":{"spayed_neutered":false,"house_trained":true,"declawed":null,"special_needs":false,"shots_current":false},"environment":{"children":true,"dogs":true,"cats":true},"tags":[],"name":"Lenny","description":"Welcome
        Lenny.  Lenny is adorable.  He is a 9-week old Lab\/Boxer pup.  He was found
        dumped on a construction site...","photos":[{"small":"https:\/\/dl5zpyw5k3jeb.cloudfront.net\/photos\/pets\/44649294\/1\/?bust=1557369832\u0026width=100","medium":"https:\/\/dl5zpyw5k3jeb.cloudfront.net\/photos\/pets\/44649294\/1\/?bust=1557369832\u0026width=300","large":"https:\/\/dl5zpyw5k3jeb.cloudfront.net\/photos\/pets\/44649294\/1\/?bust=1557369832\u0026width=600","full":"https:\/\/dl5zpyw5k3jeb.cloudfront.net\/photos\/pets\/44649294\/1\/?bust=1557369832"},{"small":"https:\/\/dl5zpyw5k3jeb.cloudfront.net\/photos\/pets\/44649294\/2\/?bust=1557369836\u0026width=100","medium":"https:\/\/dl5zpyw5k3jeb.cloudfront.net\/photos\/pets\/44649294\/2\/?bust=1557369836\u0026width=300","large":"https:\/\/dl5zpyw5k3jeb.cloudfront.net\/photos\/pets\/44649294\/2\/?bust=1557369836\u0026width=600","full":"https:\/\/dl5zpyw5k3jeb.cloudfront.net\/photos\/pets\/44649294\/2\/?bust=1557369836"},{"small":"https:\/\/dl5zpyw5k3jeb.cloudfront.net\/photos\/pets\/44649294\/3\/?bust=1557369842\u0026width=100","medium":"https:\/\/dl5zpyw5k3jeb.cloudfront.net\/photos\/pets\/44649294\/3\/?bust=1557369842\u0026width=300","large":"https:\/\/dl5zpyw5k3jeb.cloudfront.net\/photos\/pets\/44649294\/3\/?bust=1557369842\u0026width=600","full":"https:\/\/dl5zpyw5k3jeb.cloudfront.net\/photos\/pets\/44649294\/3\/?bust=1557369842"},{"small":"https:\/\/dl5zpyw5k3jeb.cloudfront.net\/photos\/pets\/44649294\/4\/?bust=1557369850\u0026width=100","medium":"https:\/\/dl5zpyw5k3jeb.cloudfront.net\/photos\/pets\/44649294\/4\/?bust=1557369850\u0026width=300","large":"https:\/\/dl5zpyw5k3jeb.cloudfront.net\/photos\/pets\/44649294\/4\/?bust=1557369850\u0026width=600","full":"https:\/\/dl5zpyw5k3jeb.cloudfront.net\/photos\/pets\/44649294\/4\/?bust=1557369850"}],"status":"adoptable","published_at":"2019-05-09T02:45:07+0000","contact":{"email":"maudreyh@aol.com","phone":"210-867-1769","address":{"address1":"P.O.
        Box 2200","address2":null,"city":"Bandera","state":"TX","postcode":"78003","country":"US"}},"_links":{"self":{"href":"\/v2\/animals\/44649294"},"type":{"href":"\/v2\/types\/dog"},"organization":{"href":"\/v2\/organizations\/tx364"}}},{"id":44645615,"organization_id":"NC171","url":"https:\/\/www.petfinder.com\/dog\/babe-ruth-44645615\/nc\/winston-salem\/animal-adoption-and-rescue-foundation-nc171\/?referrer_id=97f97876-7585-4c77-b7df-5f9c2874e1ca","type":"Dog","species":"Dog","breeds":{"primary":"Boxer","secondary":"Mastiff","mixed":true,"unknown":false},"colors":{"primary":"Black","secondary":"Yellow
        \/ Tan \/ Blond \/ Fawn","tertiary":null},"age":"Baby","gender":"Female","size":"Large","coat":"Short","attributes":{"spayed_neutered":false,"house_trained":false,"declawed":null,"special_needs":false,"shots_current":true},"environment":{"children":true,"dogs":true,"cats":true},"tags":[],"name":"Babe
        Ruth","description":"Two mastiff mommies, met with one boxer daddy and created
        9 puppies in two litters.  It\u0026#039;s enough to form a...","photos":[],"status":"adoptable","published_at":"2019-05-09T02:44:57+0000","contact":{"email":"joyce.fish@triad.rr.com","phone":null,"address":{"address1":null,"address2":null,"city":"Winston
        Salem","state":"NC","postcode":"27103","country":"US"}},"_links":{"self":{"href":"\/v2\/animals\/44645615"},"type":{"href":"\/v2\/types\/dog"},"organization":{"href":"\/v2\/organizations\/nc171"}}},{"id":44648604,"organization_id":"TN668","url":"https:\/\/www.petfinder.com\/dog\/bonnie-44648604\/tn\/greeneville\/imminent-danger-german-shepherd-rescue-tn668\/?referrer_id=97f97876-7585-4c77-b7df-5f9c2874e1ca","type":"Dog","species":"Dog","breeds":{"primary":"German
        Shepherd Dog","secondary":null,"mixed":true,"unknown":false},"colors":{"primary":"Bicolor","secondary":null,"tertiary":null},"age":"Adult","gender":"Female","size":"Large","coat":null,"attributes":{"spayed_neutered":true,"house_trained":false,"declawed":null,"special_needs":false,"shots_current":true},"environment":{"children":null,"dogs":null,"cats":false},"tags":["Sweetheart"],"name":"Bonnie","description":"IDGSR
        WELCOMES BONNIE INTO THE SAFETY OF THE RESCUE!!!\n\nPLEASE NOTE: If the dog
        you are interested in is online,...","photos":[{"small":"https:\/\/dl5zpyw5k3jeb.cloudfront.net\/photos\/pets\/44648604\/1\/?bust=1557369703\u0026width=100","medium":"https:\/\/dl5zpyw5k3jeb.cloudfront.net\/photos\/pets\/44648604\/1\/?bust=1557369703\u0026width=300","large":"https:\/\/dl5zpyw5k3jeb.cloudfront.net\/photos\/pets\/44648604\/1\/?bust=1557369703\u0026width=600","full":"https:\/\/dl5zpyw5k3jeb.cloudfront.net\/photos\/pets\/44648604\/1\/?bust=1557369703"},{"small":"https:\/\/dl5zpyw5k3jeb.cloudfront.net\/photos\/pets\/44648604\/2\/?bust=1557369727\u0026width=100","medium":"https:\/\/dl5zpyw5k3jeb.cloudfront.net\/photos\/pets\/44648604\/2\/?bust=1557369727\u0026width=300","large":"https:\/\/dl5zpyw5k3jeb.cloudfront.net\/photos\/pets\/44648604\/2\/?bust=1557369727\u0026width=600","full":"https:\/\/dl5zpyw5k3jeb.cloudfront.net\/photos\/pets\/44648604\/2\/?bust=1557369727"},{"small":"https:\/\/dl5zpyw5k3jeb.cloudfront.net\/photos\/pets\/44648604\/3\/?bust=1557369733\u0026width=100","medium":"https:\/\/dl5zpyw5k3jeb.cloudfront.net\/photos\/pets\/44648604\/3\/?bust=1557369733\u0026width=300","large":"https:\/\/dl5zpyw5k3jeb.cloudfront.net\/photos\/pets\/44648604\/3\/?bust=1557369733\u0026width=600","full":"https:\/\/dl5zpyw5k3jeb.cloudfront.net\/photos\/pets\/44648604\/3\/?bust=1557369733"},{"small":"https:\/\/dl5zpyw5k3jeb.cloudfront.net\/photos\/pets\/44648604\/4\/?bust=1557369745\u0026width=100","medium":"https:\/\/dl5zpyw5k3jeb.cloudfront.net\/photos\/pets\/44648604\/4\/?bust=1557369745\u0026width=300","large":"https:\/\/dl5zpyw5k3jeb.cloudfront.net\/photos\/pets\/44648604\/4\/?bust=1557369745\u0026width=600","full":"https:\/\/dl5zpyw5k3jeb.cloudfront.net\/photos\/pets\/44648604\/4\/?bust=1557369745"}],"status":"adoptable","published_at":"2019-05-09T02:44:49+0000","contact":{"email":"ImInDangerGSRescue@gmail.com","phone":null,"address":{"address1":null,"address2":null,"city":"Greeneville","state":"TN","postcode":"37743","country":"US"}},"_links":{"self":{"href":"\/v2\/animals\/44648604"},"type":{"href":"\/v2\/types\/dog"},"organization":{"href":"\/v2\/organizations\/tn668"}}},{"id":44649137,"organization_id":"MB25","url":"https:\/\/www.petfinder.com\/dog\/ronnie-44649137\/mb\/winnipeg\/manitoba-underdogs-rescue-mb25\/?referrer_id=97f97876-7585-4c77-b7df-5f9c2874e1ca","type":"Dog","species":"Dog","breeds":{"primary":"Great
        Pyrenees","secondary":"Border Collie","mixed":true,"unknown":false},"colors":{"primary":"Black","secondary":"White
        \/ Cream","tertiary":null},"age":"Adult","gender":"Female","size":"Large","coat":"Long","attributes":{"spayed_neutered":false,"house_trained":true,"declawed":null,"special_needs":false,"shots_current":true},"environment":{"children":null,"dogs":true,"cats":null},"tags":["Loyal","Laid
        Back"],"name":"Ronnie","description":"Ronnie \nAvailable: Now \nAge: 1 year
        old \nSize: Large (75-85lbs) \nEnergy: Low-Moderate \nGender: Female \nBreed(s):
        Great Pyrenees\/Border Collie X \nNotes:...","photos":[{"small":"https:\/\/dl5zpyw5k3jeb.cloudfront.net\/photos\/pets\/44649137\/2\/?bust=1557369511\u0026width=100","medium":"https:\/\/dl5zpyw5k3jeb.cloudfront.net\/photos\/pets\/44649137\/2\/?bust=1557369511\u0026width=300","large":"https:\/\/dl5zpyw5k3jeb.cloudfront.net\/photos\/pets\/44649137\/2\/?bust=1557369511\u0026width=600","full":"https:\/\/dl5zpyw5k3jeb.cloudfront.net\/photos\/pets\/44649137\/2\/?bust=1557369511"},{"small":"https:\/\/dl5zpyw5k3jeb.cloudfront.net\/photos\/pets\/44649137\/1\/?bust=1557369506\u0026width=100","medium":"https:\/\/dl5zpyw5k3jeb.cloudfront.net\/photos\/pets\/44649137\/1\/?bust=1557369506\u0026width=300","large":"https:\/\/dl5zpyw5k3jeb.cloudfront.net\/photos\/pets\/44649137\/1\/?bust=1557369506\u0026width=600","full":"https:\/\/dl5zpyw5k3jeb.cloudfront.net\/photos\/pets\/44649137\/1\/?bust=1557369506"},{"small":"https:\/\/dl5zpyw5k3jeb.cloudfront.net\/photos\/pets\/44649137\/3\/?bust=1557369514\u0026width=100","medium":"https:\/\/dl5zpyw5k3jeb.cloudfront.net\/photos\/pets\/44649137\/3\/?bust=1557369514\u0026width=300","large":"https:\/\/dl5zpyw5k3jeb.cloudfront.net\/photos\/pets\/44649137\/3\/?bust=1557369514\u0026width=600","full":"https:\/\/dl5zpyw5k3jeb.cloudfront.net\/photos\/pets\/44649137\/3\/?bust=1557369514"},{"small":"https:\/\/dl5zpyw5k3jeb.cloudfront.net\/photos\/pets\/44649137\/4\/?bust=1557369516\u0026width=100","medium":"https:\/\/dl5zpyw5k3jeb.cloudfront.net\/photos\/pets\/44649137\/4\/?bust=1557369516\u0026width=300","large":"https:\/\/dl5zpyw5k3jeb.cloudfront.net\/photos\/pets\/44649137\/4\/?bust=1557369516\u0026width=600","full":"https:\/\/dl5zpyw5k3jeb.cloudfront.net\/photos\/pets\/44649137\/4\/?bust=1557369516"}],"status":"adoptable","published_at":"2019-05-09T02:43:45+0000","contact":{"email":"inquiry@manitobaunderdogs.org","phone":null,"address":{"address1":null,"address2":null,"city":"Winnipeg","state":"MB","postcode":"R2M
        2K2","country":"CA"}},"_links":{"self":{"href":"\/v2\/animals\/44649137"},"type":{"href":"\/v2\/types\/dog"},"organization":{"href":"\/v2\/organizations\/mb25"}}}],"pagination":{"count_per_page":5,"total_count":7686027,"current_page":1,"total_pages":1537206,"_links":{"next":{"href":"\/v2\/animals?limit=5\u0026page=2"}}}}'
    http_version: 
  recorded_at: Thu, 09 May 2019 02:45:45 GMT
recorded_with: VCR 4.0.0
